{
  "routes": [
    {
      "method": "GET",
      "path": "/authenticates",
      "handler": "authenticate.login",
      "config": {
        "policies": []
      }
    },
    {
      "method": "GET",
      "path": "/authenticates/count",
      "handler": "authenticate.count",
      "config": {
        "policies": []
      }
    },
    {
      "method": "GET",
      "path": "/authenticates",
      "handler": "authenticate.login",
      "config": {
        "policies": []
      }
    },
    {
      "method": "POST",
      "path": "/authenticates",
      "handler": "authenticate.login",
      "config": {
        "policies": []
      }
    },
    {
      "method": "PUT",
      "path": "/authenticates/:id",
      "handler": "authenticate.update",
      "config": {
        "policies": []
      }
    },
    {
      "method": "DELETE",
      "path": "/authenticates/:id",
      "handler": "authenticate.delete",
      "config": {
        "policies": []
      }
    }
  ]
}